@startuml
package "accounts" {
[User Management]
[account management]
}
package pupils {
[pupil records]
[pupil group management]
}
package messages {
[message management]
[message send management]
}

@enduml